你的shift弄成arithmatic shift了
应该是logical
你已经加了bias, 全都是正数，没必要再用arithmetic shift

这个是没有bias的版本，就要用arithmetic shift.
 明白了
是不是arithmetic shift 就把signed bit 给复制了 所以是-16
因为-16 = 11111111111 0000

是这个道理，不过有一点不对。第一位不叫sign bit. 二进制有很多种表示方式，你一般见过的是unsigned
0 ---- 0000
1 ---- 0001
2 ---- 0010

signed integer才是你说的那种情况，不过java用的不是signed integer.
Signed integer
1 ---- 0001
-1---- 1001
-2---- 1010
0 ---- 0000
-0---- 1000
这个表示方式java不用因为有两个数可以表示0.这样相当于四位只能表示15个数字，你就没办法表示-8到7，只能-7到7

Java用的是two's complement. 正数是一样的，负数反过来。
0 ---- 0000
1 ---- 0001
-8---- 1000
-7---- 1001
-6---- 1010
-5---- 1011
-4---- 1100
-3---- 1101感谢
-2---- 1110
-1---- 1111
所以第一位并不叫sign bit.只是刚好在这个表示方式里面负数都是1开头，正数都是0开头而已 嗯嗯明白啦 感激涕零